<?xml version="1.0" encoding="UTF-8" ?>
<!DOCTYPE svg PUBLIC "-//W3C//DTD SVG 1.1//EN" "http://www.w3.org/Graphics/SVG/1.1/DTD/svg11.dtd">
<svg width="298pt" height="367pt" viewBox="0 0 298 300" version="1.1" xmlns="http://www.w3.org/2000/svg">
<g id="#f7f7f7ff">
</g>
<g id="#bbd613ff">
<path fill="#bbd613" opacity="1.00" d=" M 144.25 1.22 C 145.94 0.34 146.70 2.38 147.61 3.36 C 189.89 45.02 231.62 87.38 273.78 129.22 C 274.92 130.74 277.19 131.74 277.10 133.94 C 268.01 134.08 258.91 133.95 249.82 134.08 C 241.31 133.89 232.79 134.24 224.29 133.78 C 199.89 109.48 175.66 85.01 151.19 60.79 C 148.82 59.13 147.45 54.98 144.21 55.10 C 142.17 57.11 140.14 59.18 138.65 61.65 C 135.00 64.27 131.90 67.57 128.74 70.74 C 108.95 90.61 89.05 110.37 69.28 130.27 C 67.93 131.64 66.49 132.99 64.68 133.72 C 56.54 134.33 48.37 133.78 40.22 134.11 C 31.13 133.95 22.04 134.08 12.94 133.95 C 13.01 133.52 13.14 132.64 13.21 132.21 C 56.97 88.63 100.58 44.89 144.25 1.22 Z" />
</g>
<g id="#0f1e8aff">
<path fill="#0f1e8a" opacity="1.00" d=" M 151.19 60.79 C 175.66 85.01 199.89 109.48 224.29 133.78 C 232.79 134.24 241.31 133.89 249.82 134.08 C 251.82 137.19 256.41 139.05 256.96 142.84 C 254.63 144.90 251.56 146.23 249.80 148.90 C 258.88 149.18 267.97 148.82 277.05 149.06 C 276.99 149.49 276.86 150.36 276.79 150.79 C 233.03 194.37 189.42 238.11 145.74 281.78 C 145.36 281.80 144.60 281.83 144.22 281.84 C 111.35 248.70 78.23 215.79 45.25 182.75 C 34.08 171.47 22.28 160.98 11.83 149.08 C 20.93 148.83 30.04 149.18 39.14 148.92 C 37.52 145.76 32.22 144.29 33.08 140.18 C 35.47 138.17 38.13 136.45 40.22 134.11 C 48.37 133.78 56.54 134.33 64.68 133.72 C 66.49 132.99 67.93 131.64 69.28 130.27 C 89.05 110.37 108.95 90.61 128.74 70.74 C 131.90 67.57 135.00 64.27 138.65 61.65 C 139.04 67.00 139.09 72.35 138.80 77.71 C 118.28 98.22 97.76 118.73 77.24 139.24 C 75.41 141.09 75.57 142.77 77.72 144.28 C 97.78 164.21 117.71 184.26 137.75 204.22 C 140.62 208.49 138.17 214.19 139.09 218.99 C 137.60 223.69 142.21 225.63 144.29 228.81 C 146.96 227.10 149.33 224.65 150.89 221.90 C 151.33 216.05 150.75 210.16 151.22 204.31 C 172.28 184.00 192.48 162.81 213.71 142.66 C 213.73 142.30 213.78 141.60 213.80 141.25 C 193.25 120.80 172.79 100.25 152.25 79.78 C 148.78 74.32 152.16 66.88 151.19 60.79 Z" />
</g>
</svg>
